Network,Ord,Method,Layer,Time
Dummy,1,F_2_3,1.2,7.71
Dummy,1,F_2_3,2.2,5.99
Dummy,1,F_2_3,3.2,5.31
Dummy,1,F_2_3,4.2,4.53
Dummy,1,F_2_3,5.2,4.52
Dummy,2,F_2_3_FX,1.2,7.67
Dummy,2,F_2_3_FX,2.2,6.00
Dummy,2,F_2_3_FX,3.2,5.35
Dummy,2,F_2_3_FX,4.2,4.47
Dummy,2,F_2_3_FX,5.2,4.15
Dummy,3,F_4_3,1.2,4.63
Dummy,3,F_4_3,2.2,3.61
Dummy,3,F_4_3,3.2,3.34
Dummy,3,F_4_3,4.2,3.90
Dummy,3,F_4_3,5.2,4.55
Dummy,4,F_4_3_FX,1.2,4.59
Dummy,4,F_4_3_FX,2.2,3.57
Dummy,4,F_4_3_FX,3.2,3.33
Dummy,4,F_4_3_FX,4.2,3.69
Dummy,4,F_4_3_FX,5.2,4.02
Dummy,5,F_6_3,1.2,3.82
Dummy,5,F_6_3,2.2,2.88
Dummy,5,F_6_3,3.2,2.63
Dummy,5,F_6_3,4.2,2.51
Dummy,5,F_6_3,5.2,3.91
Dummy,6,F_6_3_FX,1.2,3.79
Dummy,6,F_6_3_FX,2.2,2.83
Dummy,6,F_6_3_FX,3.2,2.52
Dummy,6,F_6_3_FX,4.2,2.26
Dummy,6,F_6_3_FX,5.2,2.77
Dummy,7,F_8_3,1.2,3.64
Dummy,7,F_8_3,2.2,2.88
Dummy,7,F_8_3,3.2,3.32
Dummy,7,F_8_3,4.2,4.30
Dummy,7,F_8_3,5.2,6.47
Dummy,8,F_8_3_FX,1.2,3.68
Dummy,8,F_8_3_FX,2.2,2.83
Dummy,8,F_8_3_FX,3.2,3.13
Dummy,8,F_8_3_FX,4.2,3.92
Dummy,8,F_8_3_FX,5.2,4.81
Dummy,14,ZNNphi-Direct,1.2,10.39
Dummy,14,ZNNphi-Direct,2.2,10.29
Dummy,14,ZNNphi-Direct,3.2,9.96
Dummy,14,ZNNphi-Direct,4.2,9.90
Dummy,14,ZNNphi-Direct,5.2,8.95
Dummy,10,FALCON,1.2,25.57
Dummy,10,FALCON,2.2,21.31
Dummy,10,FALCON,3.2,21.92
Dummy,10,FALCON,4.2,17.04
Dummy,10,FALCON,5.2,23.61
Dummy,11,Libxsmm,1.2,12.99
Dummy,11,Libxsmm,2.2,14.61
Dummy,11,Libxsmm,3.2,8.23
Dummy,11,Libxsmm,4.2,11.50
Dummy,11,Libxsmm,5.2,17.72
Dummy,12,MKL-DNN-Winograd,1.2,0
Dummy,12,MKL-DNN-Winograd,2.2,0
Dummy,12,MKL-DNN-Winograd,3.2,0
Dummy,12,MKL-DNN-Winograd,4.2,0
Dummy,12,MKL-DNN-Winograd,5.2,12.7025
Dummy,13,MKL-DNN-Direct,1.2,9.04
Dummy,13,MKL-DNN-Direct,2.2,8.71
Dummy,13,MKL-DNN-Direct,3.2,8.80
Dummy,13,MKL-DNN-Direct,4.2,8.36
Dummy,13,MKL-DNN-Direct,5.2,8.02
Dummy,15,cuDNN,1.2,2.06
Dummy,15,cuDNN,2.2,1.74
Dummy,15,cuDNN,3.2,1.63
Dummy,15,cuDNN,4.2,1.55
Dummy,15,cuDNN,5.2,2.86
Dummy,16,cuDNN2,1.2,2.06
Dummy,16,cuDNN2,2.2,1.74
Dummy,16,cuDNN2,3.2,1.63
Dummy,16,cuDNN2,4.2,1.55
Dummy,16,cuDNN2,5.2,2.86
Dummy,17,cuDNN3,1.2,2.06
Dummy,17,cuDNN3,2.2,1.74
Dummy,17,cuDNN3,3.2,1.63
Dummy,17,cuDNN3,4.2,1.55
Dummy,17,cuDNN3,5.2,2.86